{
    "rows": 5,
    "columns": 3,
    "pages": 1,
    "keys": [
        {
            "label0": "1",
            "shiftlabel0": "1"
        },
        {
            "label0": "2",
            "shiftlabel0": "2"
        },
        {
            "label0": "3",
            "shiftlabel0": "3"
        },
        {
            "label0": "4",
            "shiftlabel0": "4"
        },
        {
            "label0": "5",
            "shiftlabel0": "5"
        },
        {
            "label0": "6",
            "shiftlabel0": "6"
        },
        {
            "label0": "7",
            "shiftlabel0": "7"
        },
        {
            "label0": "8",
            "shiftlabel0": "8"
        },
        {
            "label0": "9",
            "shiftlabel0": "9"
        },
        {
            "label0": "#",
            "shiftlabel0": "#"
        },
        {
            "label0": "0",
            "shiftlabel0": "0"
        },
        {
            "label0": "*",
            "shiftlabel0": "*"
        },
        {
            "label0": "call",
            "shiftlabel0": "call",
            "icon0": "call2.png"
        },
        {
            "label0": "exit",
            "shiftlabel0": "exit",
            "icon0": "exit2.png"
        },
        {
            "label0": "erase",
            "shiftlabel0": "erase",
            "icon0": "erase2.png"
        }
    ]
}
